{
  "$schema": "./node_modules/@angular/cli/lib/config/schema.json",
  "project": {
    "name": "mepbadmin"
  },
  "apps": [
    {
      "root": "src",
      "outDir": "../../app/public",
      "assets": [
        "assets",
        "favicon.ico"
      ],
      "index": "index.html",
      "main": "main.ts",
      "polyfills": "polyfills.ts",
      "test": "test.ts",
      "tsconfig": "tsconfig.app.json",
      "testTsconfig": "tsconfig.spec.json",
      "prefix": "app",
      "styles": [
        "../node_modules/bootstrap/dist/css/bootstrap.min.css",
        "../node_modules/perfect-scrollbar/dist/css/perfect-scrollbar.min.css",
        "../node_modules/material-design-iconic-font/dist/css/material-design-iconic-font.min.css",
        "../node_modules/eonasdan-bootstrap-datetimepicker/build/css/bootstrap-datetimepicker.min.css",
        "../node_modules/bootstrap-select/dist/css/bootstrap-select.min.css",
        "../node_modules/sweetalert2/dist/sweetalert2.min.css",
        "../node_modules/font-awesome/css/font-awesome.css",
        "../node_modules/froala-editor/css/froala_editor.pkgd.min.css",
        "../node_modules/fullcalendar/dist/fullcalendar.min.css",
        "assets/ngx-datatable/icons.css",
        "assets/materialAdmin/app.css",
        "styles.scss"
      ],
      "scripts": [
        "../node_modules/jquery/dist/jquery.min.js",
        "../node_modules/bootstrap/dist/js/bootstrap.min.js",
        "../node_modules/Waves/dist/waves.min.js",
        "../node_modules/perfect-scrollbar/dist/js/perfect-scrollbar.jquery.min.js",
        "../node_modules/jquery-mask-plugin/dist/jquery.mask.min.js",
        "../node_modules/moment/min/moment-with-locales.min.js",
        "../node_modules/eonasdan-bootstrap-datetimepicker/build/js/bootstrap-datetimepicker.min.js",
        "../node_modules/bootstrap-select/dist/js/bootstrap-select.min.js",
        "../node_modules/datatables.net/js/jquery.dataTables.js",
        "../node_modules/sweetalert2/dist/sweetalert2.min.js",
        "../node_modules/froala-editor/js/froala_editor.pkgd.min.js",
        "../node_modules/fullcalendar/dist/fullcalendar.min.js",
        "../node_modules/fullcalendar/dist/locale/pt-br.js"
      ],
      "addons": [
        "../node_modules/font-awesome/fonts/*.+(otf|eot|svg|ttf|woff|woff2)"
      ],
      "environmentSource": "environments/environment.ts",
      "environments": {
        "dev": "environments/environment.ts",
        "prod": "environments/environment.prod.ts"
      }
    }
  ],
  "e2e": {
    "protractor": {
      "config": "./protractor.conf.js"
    }
  },
  "lint": [
    {
      "project": "src/tsconfig.app.json"
    },
    {
      "project": "src/tsconfig.spec.json"
    },
    {
      "project": "e2e/tsconfig.e2e.json"
    }
  ],
  "test": {
    "karma": {
      "config": "./karma.conf.js"
    }
  },
  "defaults": {
    "styleExt": "scss",
    "component": {}
  }
}